-------------------------------------------------------------------------------
Test set: org.apache.hadoop.hdfs.TestAbandonBlock
-------------------------------------------------------------------------------
Tests run: 2, Failures: 0, Errors: 0, Skipped: 0, Time elapsed: 43.933 sec - in org.apache.hadoop.hdfs.TestAbandonBlock
